{
  "name": "Simple components",
  "description": "Introduction to React. This code examples will teach you how to create a React application, add components and apply styles to them.",
  "image": "https://tribecoders.com/tribecoding/react.png",
  "keywords": ["React","TypeScript"],
  "source": "./src",
  "chapters": [{
    "chapter": "React application",
    "branch": "init",
    "file": "README"
  },{
    "chapter": "Type Script",
    "branch": "type-script",
    "file": "TypeScript"
  },{
    "chapter": "Class component",
    "branch": "class-component",
    "file": "ClassComponent"
  },{
    "chapter": "Function component",
    "branch": "function-component",
    "file": "FunctionComponent"
  }]
  }